/home/isip/Documents/abby/eurecom/openairinterface5g/openair1/PHY/NR_TRANSPORT/xdma_driver/xdma/xdma.ko
/home/isip/Documents/abby/eurecom/openairinterface5g/openair1/PHY/NR_TRANSPORT/xdma_driver/xdma/libxdma.o /home/isip/Documents/abby/eurecom/openairinterface5g/openair1/PHY/NR_TRANSPORT/xdma_driver/xdma/xdma_cdev.o /home/isip/Documents/abby/eurecom/openairinterface5g/openair1/PHY/NR_TRANSPORT/xdma_driver/xdma/cdev_ctrl.o /home/isip/Documents/abby/eurecom/openairinterface5g/openair1/PHY/NR_TRANSPORT/xdma_driver/xdma/cdev_events.o /home/isip/Documents/abby/eurecom/openairinterface5g/openair1/PHY/NR_TRANSPORT/xdma_driver/xdma/cdev_sgdma.o /home/isip/Documents/abby/eurecom/openairinterface5g/openair1/PHY/NR_TRANSPORT/xdma_driver/xdma/cdev_xvc.o /home/isip/Documents/abby/eurecom/openairinterface5g/openair1/PHY/NR_TRANSPORT/xdma_driver/xdma/cdev_bypass.o /home/isip/Documents/abby/eurecom/openairinterface5g/openair1/PHY/NR_TRANSPORT/xdma_driver/xdma/xdma_mod.o /home/isip/Documents/abby/eurecom/openairinterface5g/openair1/PHY/NR_TRANSPORT/xdma_driver/xdma/xdma_thread.o

